80.000	1.8869E-03
90.000	2.1056E-03
100.000	2.3468E-03
110.000	2.6954E-03
120.000	3.3550E-03
125.000	3.9059E-03
130.000	4.7045E-03
140.000	7.8328E-03
150.000	1.7710E-02
155.000	3.2034E-02
160.000	6.8416E-02
165.000	0.2452
170.000	0.3806
180.000	0.6359
190.000	1.0390
200.000	1.4359
210.000	1.8423
220.000	2.2982
230.000	2.8141
240.000	3.3945
250.000	4.0429
260.000	4.7625
270.000	5.5569
280.000	6.4297